<?xml version="1.0" encoding="UTF-8" standalone="no"?>
<!-- Created with Inkscape (http://www.inkscape.org/) -->

<svg
   xmlns:dc="http://purl.org/dc/elements/1.1/"
   xmlns:cc="http://creativecommons.org/ns#"
   xmlns:rdf="http://www.w3.org/1999/02/22-rdf-syntax-ns#"
   xmlns:svg="http://www.w3.org/2000/svg"
   xmlns="http://www.w3.org/2000/svg"
   xmlns:sodipodi="http://sodipodi.sourceforge.net/DTD/sodipodi-0.dtd"
   xmlns:inkscape="http://www.inkscape.org/namespaces/inkscape"
   width="14"
   height="14"
   viewBox="0 0 3.7041665 3.7041668"
   version="1.1"
   id="svg8"
   inkscape:version="0.92.4 5da689c313, 2019-01-14"
   sodipodi:docname="cornerne.svg">
  <defs
     id="defs2" />
  <sodipodi:namedview
     id="base"
     pagecolor="#ffffff"
     bordercolor="#666666"
     borderopacity="1.0"
     inkscape:pageopacity="0.0"
     inkscape:pageshadow="2"
     inkscape:zoom="22.4"
     inkscape:cx="-6.3216417"
     inkscape:cy="3.8104223"
     inkscape:document-units="mm"
     inkscape:current-layer="layer1"
     showgrid="true"
     units="px"
     inkscape:window-width="1884"
     inkscape:window-height="1375"
     inkscape:window-x="2580"
     inkscape:window-y="43"
     inkscape:window-maximized="0">
    <inkscape:grid
       type="xygrid"
       id="grid4518" />
  </sodipodi:namedview>
  <metadata
     id="metadata5">
    <rdf:RDF>
      <cc:Work
         rdf:about="">
        <dc:format>image/svg+xml</dc:format>
        <dc:type
           rdf:resource="http://purl.org/dc/dcmitype/StillImage" />
        <dc:title></dc:title>
      </cc:Work>
    </rdf:RDF>
  </metadata>
  <g
     inkscape:label="Ebene 1"
     inkscape:groupmode="layer"
     id="layer1"
     transform="translate(0,-293.29582)">
    <rect
       style="fill:#000000;fill-opacity:1;stroke:none;stroke-width:0.35333332;stroke-linecap:round;stroke-miterlimit:4;stroke-dasharray:none;stroke-opacity:1"
       id="rect4539"
       width="1.0583333"
       height="1.0583333"
       x="0"
       y="295.94165" />
    <rect
       style="fill:#000000;fill-opacity:1;stroke:none;stroke-width:0.35333332;stroke-linecap:round;stroke-miterlimit:4;stroke-dasharray:none;stroke-opacity:1"
       id="rect4539-3"
       width="1.0583333"
       height="1.0583333"
       x="0"
       y="294.61874" />
    <rect
       style="fill:#000000;fill-opacity:1;stroke:none;stroke-width:0.35333332;stroke-linecap:round;stroke-miterlimit:4;stroke-dasharray:none;stroke-opacity:1"
       id="rect4539-6"
       width="1.0583333"
       height="1.0583333"
       x="0"
       y="293.29581" />
    <rect
       style="fill:#000000;fill-opacity:1;stroke:none;stroke-width:0.35333332;stroke-linecap:round;stroke-miterlimit:4;stroke-dasharray:none;stroke-opacity:1"
       id="rect4539-7"
       width="1.0583333"
       height="1.0583333"
       x="1.3229167"
       y="295.94165" />
    <rect
       style="fill:#000000;fill-opacity:1;stroke:none;stroke-width:0.35333332;stroke-linecap:round;stroke-miterlimit:4;stroke-dasharray:none;stroke-opacity:1"
       id="rect4539-5"
       width="1.0583333"
       height="1.0583333"
       x="2.6458333"
       y="295.94168" />
    <rect
       style="fill:#000000;fill-opacity:1;stroke:none;stroke-width:0.79499775;stroke-linecap:round;stroke-miterlimit:4;stroke-dasharray:none;stroke-opacity:1"
       id="rect4539-35"
       width="2.3812501"
       height="2.3812363"
       x="1.3229166"
       y="293.29581" />
  </g>
</svg>
