<?xml version="1.0" encoding="UTF-8" standalone="no"?>
<!-- Created with Inkscape (http://www.inkscape.org/) -->

<svg
   xmlns:dc="http://purl.org/dc/elements/1.1/"
   xmlns:cc="http://creativecommons.org/ns#"
   xmlns:rdf="http://www.w3.org/1999/02/22-rdf-syntax-ns#"
   xmlns:svg="http://www.w3.org/2000/svg"
   xmlns="http://www.w3.org/2000/svg"
   xmlns:sodipodi="http://sodipodi.sourceforge.net/DTD/sodipodi-0.dtd"
   xmlns:inkscape="http://www.inkscape.org/namespaces/inkscape"
   width="14"
   height="14"
   viewBox="0 0 3.7041665 3.7041668"
   version="1.1"
   id="svg8"
   inkscape:version="0.92.4 5da689c313, 2019-01-14"
   sodipodi:docname="dwindle.svg">
  <defs
     id="defs2" />
  <sodipodi:namedview
     id="base"
     pagecolor="#ffffff"
     bordercolor="#666666"
     borderopacity="1.0"
     inkscape:pageopacity="0.0"
     inkscape:pageshadow="2"
     inkscape:zoom="45.254834"
     inkscape:cx="5.0782936"
     inkscape:cy="7.6900179"
     inkscape:document-units="mm"
     inkscape:current-layer="svg8"
     showgrid="true"
     units="px"
     inkscape:window-width="1884"
     inkscape:window-height="1375"
     inkscape:window-x="2580"
     inkscape:window-y="43"
     inkscape:window-maximized="0">
    <inkscape:grid
       type="xygrid"
       id="grid4518" />
  </sodipodi:namedview>
  <metadata
     id="metadata5">
    <rdf:RDF>
      <cc:Work
         rdf:about="">
        <dc:format>image/svg+xml</dc:format>
        <dc:type
           rdf:resource="http://purl.org/dc/dcmitype/StillImage" />
        <dc:title></dc:title>
      </cc:Work>
    </rdf:RDF>
  </metadata>
  <g
     inkscape:label="Ebene 1"
     inkscape:groupmode="layer"
     id="layer1"
     transform="translate(0,-293.29582)" />
  <rect
     style="fill:#000000;fill-opacity:1;stroke:none;stroke-width:0.485753;stroke-linecap:round;stroke-miterlimit:4;stroke-dasharray:none;stroke-opacity:1"
     id="rect4886"
     width="1.5875"
     height="3.7041667"
     x="3.9736431e-08"
     y="0" />
  <rect
     style="fill:#000000;fill-opacity:1;stroke:none;stroke-width:0.31799999;stroke-linecap:round;stroke-miterlimit:4;stroke-dasharray:none;stroke-opacity:1"
     id="rect4886-6"
     width="1.5875"
     height="1.5875"
     x="2.1166666"
     y="0" />
  <rect
     style="fill:#000000;fill-opacity:1;stroke:none;stroke-width:0.22485994;stroke-linecap:round;stroke-miterlimit:4;stroke-dasharray:none;stroke-opacity:1"
     id="rect4886-6-2"
     width="0.79374993"
     height="1.5875"
     x="2.1166666"
     y="2.1166668" />
  <rect
     style="fill:#000000;fill-opacity:1;stroke:none;stroke-width:0.12982298;stroke-linecap:round;stroke-miterlimit:4;stroke-dasharray:none;stroke-opacity:1"
     id="rect4886-6-2-6"
     width="0.52916682"
     height="0.79375017"
     x="3.175"
     y="2.1166666" />
  <rect
     style="fill:#000000;fill-opacity:1;stroke:none;stroke-width:0.07495333;stroke-linecap:round;stroke-miterlimit:4;stroke-dasharray:none;stroke-opacity:1"
     id="rect4886-6-2-6-1"
     width="0.52916682"
     height="0.26458332"
     x="3.1749997"
     y="3.4395833" />
</svg>
